<?xml version="1.0" encoding="UTF-8"?>
<svg width="8px" height="16px" viewBox="0 0 8 16" version="1.1" xmlns="http://www.w3.org/2000/svg" xmlns:xlink="http://www.w3.org/1999/xlink">
    <!-- Generator: Sketch 53.2 (72643) - https://sketchapp.com -->
    <title>ico_facebook_footer</title>
    <desc>Created with Sketch.</desc>
    <g id="Page-1" stroke="none" stroke-width="1" fill="none" fill-rule="evenodd">
        <g id="20_Apartment_Offmenu" transform="translate(-50.000000, -575.000000)" fill="#FFFFFF" fill-rule="nonzero">
            <g id="offmenu">
                <g id="Group-6" transform="translate(50.000000, 575.000000)">
                    <g id="fb">
                        <g id="ico_facebook_footer">
                            <path d="M5,5.5 L5,3.5 C5,2.948 5.448,2.5 6,2.5 L7,2.5 L7,0 L5,0 C3.343,0 2,1.343 2,3 L2,5.5 L0,5.5 L0,8 L2,8 L2,16 L5,16 L5,8 L7,8 L8,5.5 L5,5.5 Z" id="Shape"></path>
                        </g>
                    </g>
                </g>
            </g>
        </g>
    </g>
</svg>